Django==1.9.7
Markdown==2.6.6
Pillow==3.2.0
PyJWT==1.4.0
PyMySQL==0.7.4
defusedxml==0.4.1
django-braces==1.9.0
django-filter==0.13.0
django-oauth-toolkit==0.10.0
django-rest-framework-social-oauth2==1.0.4
djangorestframework==3.3.3
oauthlib==1.0.3
python-social-auth==0.2.19
python3-openid==3.0.10
requests==2.10.0
requests-oauthlib==0.6.1
six==1.10.0
django-rest-auth
django-push-notifications
